…
ggflowchart_example %>% 
  as_tbl_graph()
#> # A tbl_graph: 7 nodes and 6 edges
#> #
#> # A rooted tree
#> #
#> # A tibble: 7 × 1
#>   name 
#>   <chr>
#> 1 A    
#> 2 B    
#> 3 C    
#> 4 F    
#> 5 D    
#> 6 E    
#> # ℹ 1 more row
#> #
#> # A tibble: 6 × 2
#>    from    to
#>   <int> <int>
#> 1     1     2
#> 2     1     3
#> 3     1     5
#> # ℹ 3 more rows
```
…
